tomato1,dp,1 = true
tomato1,dp,2 = true
tomato1,dp,3 = true
tomato1,dp,4 = true
tomato1,dp,5 = true
tomato1,dp,7 = true
tomato1,dbc,1 = true
tomato1,dbc,2 = true
tomato1,dbc,3 = true
tomato1,dbc,4 = true
tomato1,dbc,5 = true
tomato1,dbc,7 = true
tomato1,dg,1 = true
tomato1,dg,2 = true
tomato1,dg,3 = true
tomato1,dg,4 = true
tomato1,dg,5 = true
tomato1,dg,7 = true
tomato10,dp,1 = true
tomato10,dp,2 = true
tomato10,dp,3 = true
tomato10,dp,4 = true
tomato10,dp,5 = true
tomato10,dp,7 = true
tomato10,dbc,1 = true
tomato10,dbc,2 = true
tomato10,dbc,3 = true
tomato10,dbc,4 = true
tomato10,dbc,5 = true
tomato10,dbc,7 = true
tomato10,dg,1 = true
tomato10,dg,2 = true
tomato10,dg,3 = true
tomato10,dg,4 = true
tomato10,dg,5 = true
tomato10,dg,7 = true
tomato2,dp,1 = true
tomato2,dp,2 = true
tomato2,dp,3 = true
tomato2,dp,4 = true
tomato2,dp,5 = true
tomato2,dp,7 = true
tomato2,dbc,1 = true
tomato2,dbc,2 = true
tomato2,dbc,3 = true
tomato2,dbc,4 = true
tomato2,dbc,5 = true
tomato2,dbc,7 = true
tomato2,dg,1 = true
tomato2,dg,2 = true
tomato2,dg,3 = true
tomato2,dg,4 = true
tomato2,dg,5 = true
tomato2,dg,7 = true
tomato3,dp,1 = true
tomato3,dp,2 = true
tomato3,dp,3 = true
tomato3,dp,4 = true
tomato3,dp,5 = true
tomato3,dp,7 = true
tomato3,dbc,1 = true
tomato3,dbc,2 = true
tomato3,dbc,3 = true
tomato3,dbc,4 = true
tomato3,dbc,5 = true
tomato3,dbc,7 = true
tomato3,dg,1 = true
tomato3,dg,2 = true
tomato3,dg,3 = true
tomato3,dg,4 = true
tomato3,dg,5 = true
tomato3,dg,7 = true
tomato4,dp,1 = true
tomato4,dp,2 = true
tomato4,dp,3 = true
tomato4,dp,4 = true
tomato4,dp,5 = true
tomato4,dp,7 = true
tomato4,dbc,1 = true
tomato4,dbc,2 = true
tomato4,dbc,3 = true
tomato4,dbc,4 = true
tomato4,dbc,5 = true
tomato4,dbc,7 = true
tomato4,dg,1 = true
tomato4,dg,2 = true
tomato4,dg,3 = true
tomato4,dg,4 = true
tomato4,dg,5 = true
tomato4,dg,7 = true
tomato5,dp,1 = true
tomato5,dp,2 = true
tomato5,dp,3 = true
tomato5,dp,4 = true
tomato5,dp,5 = true
tomato5,dp,7 = true
tomato5,dbc,1 = true
tomato5,dbc,2 = true
tomato5,dbc,3 = true
tomato5,dbc,4 = true
tomato5,dbc,5 = true
tomato5,dbc,7 = true
tomato5,dg,1 = true
tomato5,dg,2 = true
tomato5,dg,3 = true
tomato5,dg,4 = true
tomato5,dg,5 = true
tomato5,dg,7 = true
tomato6,dp,1 = false
tomato6,dp,2 = false
tomato6,dp,3 = true
tomato6,dp,4 = true
tomato6,dp,5 = true
tomato6,dp,7 = true
tomato6,dbc,1 = false
tomato6,dbc,2 = false
tomato6,dbc,3 = false
tomato6,dbc,4 = false
tomato6,dbc,5 = false
tomato6,dbc,7 = false
tomato6,dg,1 = false
tomato6,dg,2 = false
tomato6,dg,3 = false
tomato6,dg,4 = false
tomato6,dg,5 = false
tomato6,dg,7 = true
tomato7,dp,1 = true
tomato7,dp,2 = true
tomato7,dp,3 = true
tomato7,dp,4 = true
tomato7,dp,5 = true
tomato7,dp,7 = true
tomato7,dbc,1 = true
tomato7,dbc,2 = true
tomato7,dbc,3 = true
tomato7,dbc,4 = true
tomato7,dbc,5 = true
tomato7,dbc,7 = true
tomato7,dg,1 = true
tomato7,dg,2 = true
tomato7,dg,3 = true
tomato7,dg,4 = true
tomato7,dg,5 = true
tomato7,dg,7 = true
tomato8,dp,1 = true
tomato8,dp,2 = true
tomato8,dp,3 = true
tomato8,dp,4 = true
tomato8,dp,5 = true
tomato8,dp,7 = true
tomato8,dbc,1 = true
tomato8,dbc,2 = true
tomato8,dbc,3 = true
tomato8,dbc,4 = true
tomato8,dbc,5 = true
tomato8,dbc,7 = true
tomato8,dg,1 = true
tomato8,dg,2 = true
tomato8,dg,3 = true
tomato8,dg,4 = true
tomato8,dg,5 = true
tomato8,dg,7 = true
tomato9,dp,1 = false
tomato9,dp,2 = false
tomato9,dp,3 = true
tomato9,dp,4 = true
tomato9,dp,5 = true
tomato9,dp,7 = true
tomato9,dbc,1 = true
tomato9,dbc,2 = true
tomato9,dbc,3 = true
tomato9,dbc,4 = true
tomato9,dbc,5 = true
tomato9,dbc,7 = true
tomato9,dg,1 = true
tomato9,dg,2 = true
tomato9,dg,3 = true
tomato9,dg,4 = true
tomato9,dg,5 = true
tomato9,dg,7 = true
