apple1,dp,1 = true
apple1,dp,2 = true
apple1,dp,3 = true
apple1,dp,4 = true
apple1,dp,5 = true
apple1,dp,7 = true
apple1,dbc,1 = true
apple1,dbc,2 = true
apple1,dbc,3 = true
apple1,dbc,4 = true
apple1,dbc,5 = true
apple1,dbc,7 = true
apple1,dg,1 = true
apple1,dg,2 = true
apple1,dg,3 = true
apple1,dg,4 = true
apple1,dg,5 = true
apple1,dg,7 = true
apple10,dp,1 = true
apple10,dp,2 = true
apple10,dp,3 = true
apple10,dp,4 = true
apple10,dp,5 = true
apple10,dp,7 = true
apple10,dbc,1 = true
apple10,dbc,2 = true
apple10,dbc,3 = true
apple10,dbc,4 = true
apple10,dbc,5 = true
apple10,dbc,7 = true
apple10,dg,1 = true
apple10,dg,2 = true
apple10,dg,3 = true
apple10,dg,4 = true
apple10,dg,5 = true
apple10,dg,7 = true
apple2,dp,1 = true
apple2,dp,2 = true
apple2,dp,3 = true
apple2,dp,4 = true
apple2,dp,5 = true
apple2,dp,7 = true
apple2,dbc,1 = true
apple2,dbc,2 = true
apple2,dbc,3 = true
apple2,dbc,4 = true
apple2,dbc,5 = true
apple2,dbc,7 = true
apple2,dg,1 = true
apple2,dg,2 = true
apple2,dg,3 = true
apple2,dg,4 = true
apple2,dg,5 = true
apple2,dg,7 = true
apple3,dp,1 = true
apple3,dp,2 = true
apple3,dp,3 = true
apple3,dp,4 = true
apple3,dp,5 = true
apple3,dp,7 = true
apple3,dbc,1 = true
apple3,dbc,2 = true
apple3,dbc,3 = true
apple3,dbc,4 = true
apple3,dbc,5 = true
apple3,dbc,7 = true
apple3,dg,1 = true
apple3,dg,2 = true
apple3,dg,3 = true
apple3,dg,4 = true
apple3,dg,5 = true
apple3,dg,7 = true
apple4,dp,1 = true
apple4,dp,2 = true
apple4,dp,3 = true
apple4,dp,4 = true
apple4,dp,5 = true
apple4,dp,7 = true
apple4,dbc,1 = true
apple4,dbc,2 = true
apple4,dbc,3 = true
apple4,dbc,4 = true
apple4,dbc,5 = true
apple4,dbc,7 = true
apple4,dg,1 = true
apple4,dg,2 = true
apple4,dg,3 = true
apple4,dg,4 = true
apple4,dg,5 = true
apple4,dg,7 = true
apple5,dp,1 = true
apple5,dp,2 = true
apple5,dp,3 = true
apple5,dp,4 = true
apple5,dp,5 = true
apple5,dp,7 = true
apple5,dbc,1 = true
apple5,dbc,2 = true
apple5,dbc,3 = true
apple5,dbc,4 = true
apple5,dbc,5 = true
apple5,dbc,7 = true
apple5,dg,1 = true
apple5,dg,2 = true
apple5,dg,3 = true
apple5,dg,4 = true
apple5,dg,5 = true
apple5,dg,7 = true
apple6,dp,1 = true
apple6,dp,2 = true
apple6,dp,3 = true
apple6,dp,4 = true
apple6,dp,5 = true
apple6,dp,7 = true
apple6,dbc,1 = true
apple6,dbc,2 = true
apple6,dbc,3 = true
apple6,dbc,4 = true
apple6,dbc,5 = true
apple6,dbc,7 = true
apple6,dg,1 = true
apple6,dg,2 = true
apple6,dg,3 = true
apple6,dg,4 = true
apple6,dg,5 = true
apple6,dg,7 = true
apple7,dp,1 = true
apple7,dp,2 = true
apple7,dp,3 = true
apple7,dp,4 = true
apple7,dp,5 = true
apple7,dp,7 = true
apple7,dbc,1 = true
apple7,dbc,2 = true
apple7,dbc,3 = true
apple7,dbc,4 = true
apple7,dbc,5 = true
apple7,dbc,7 = true
apple7,dg,1 = true
apple7,dg,2 = true
apple7,dg,3 = true
apple7,dg,4 = true
apple7,dg,5 = true
apple7,dg,7 = true
apple8,dp,1 = true
apple8,dp,2 = true
apple8,dp,3 = true
apple8,dp,4 = true
apple8,dp,5 = true
apple8,dp,7 = true
apple8,dbc,1 = true
apple8,dbc,2 = true
apple8,dbc,3 = true
apple8,dbc,4 = true
apple8,dbc,5 = true
apple8,dbc,7 = true
apple8,dg,1 = true
apple8,dg,2 = true
apple8,dg,3 = true
apple8,dg,4 = true
apple8,dg,5 = true
apple8,dg,7 = true
apple9,dp,1 = true
apple9,dp,2 = true
apple9,dp,3 = true
apple9,dp,4 = true
apple9,dp,5 = true
apple9,dp,7 = true
apple9,dbc,1 = true
apple9,dbc,2 = true
apple9,dbc,3 = true
apple9,dbc,4 = true
apple9,dbc,5 = true
apple9,dbc,7 = true
apple9,dg,1 = true
apple9,dg,2 = true
apple9,dg,3 = true
apple9,dg,4 = true
apple9,dg,5 = true
apple9,dg,7 = true
